{
  "connection": "default",
  "collectionName": "articles",
  "info": {
    "name": "Article"
  },
  "options": {
    "increments": true,
    "timestamps": true
  },
  "attributes": {
    "categories": {
      "collection": "categories",
      "via": "articles"
    },
    "Title": {
      "type": "string",
      "required": true,
      "maxLength": 100
    },
    "chapeau": {
      "type": "text",
      "required": true,
      "maxLength": 500
    },
    "auteur": {
      "model": "auteur",
      "via": "articles"
    }
  }
}
